Ren Jie’s IS415 Journal - Hands-on Exercise 1: Geospatial Data Handling and Wrangling
…
ℹ Use `spec()` to retrieve the full column specification for this data.
ℹ Specify the column types or set `show_col_types = FALSE` to quiet this message.

Instead of using glimpse() as shown earlier, list() could also do the job.

list(listings)

[[1]]
# A tibble: 4,161 × 18
       id name     host_id host_…¹ neigh…² neigh…³ latit…⁴ longi…⁵ room_…⁶ price
    <dbl> <chr>      <dbl> <chr>   <chr>   <chr>     <dbl>   <dbl> <chr>   <dbl>
 1  50646 Pleasan…  227796 Sujatha Centra… Bukit …    1.33    104. Privat…    80
 2  71609 Ensuite…  367042 Belinda East R… Tampin…    1.35    104. Privat…   145
 3  71896 B&B  Ro…  367042 Belinda East R… Tampin…    1.35    104. Privat…    85
 4  71903 Room 2-…  367042 Belinda East R… Tampin…    1.35    104. Privat…    85
 5 275344 15 mins… 1439258 Kay     Centra… Bukit …    1.29    104. Privat…    49
 6 289234 Booking…  367042 Belinda East R… Tampin…    1.34    104. Privat…   184
 7 294281 5 mins … 1521514 Elizab… Centra… Newton     1.31    104. Privat…    79
 8 324945 Cozy Bl… 1439258 Kay     Centra… Bukit …    1.29    104. Privat…    49
 9 330089 Cozy Bl… 1439258 Kay     Centra… Bukit …    1.29    104. Privat…    55
10 330095 10 mins… 1439258 Kay     Centra… Bukit …    1.29    104. Privat…    55
# … with 4,151 more rows, 8 more variables: minimum_nights <dbl>,
#   number_of_reviews <dbl>, last_review <date>, reviews_per_month <dbl>,
#   calculated_host_listings_count <dbl>, availability_365 <dbl>,
#   number_of_reviews_ltm <dbl>, license <chr>, and abbreviated variable names
#   ¹​host_name, ²​neighbourhood_group, ³​neighbourhood, ⁴​latitude, ⁵​longitude,
#   ⁶​room_type
…
