Ren Jie’s IS415 Journal - Hands-on Exercise 2: Choropleth Mapping with R
…
population <- read_csv("Hands-on_Ex02/data/aspatial/respopagesextod2011to2020.csv")

Rows: 984656 Columns: 7
── Column specification ────────────────────────────────────────────────────────
Delimiter: ","
chr (5): PA, SZ, AG, Sex, TOD
dbl (2): Pop, Time

ℹ Use `spec()` to retrieve the full column specification for this data.
ℹ Specify the column types or set `show_col_types = FALSE` to quiet this message.

list(population)

[[1]]
# A tibble: 984,656 × 7
   PA         SZ                     AG     Sex     TOD                Pop  Time
   <chr>      <chr>                  <chr>  <chr>   <chr>            <dbl> <dbl>
 1 Ang Mo Kio Ang Mo Kio Town Centre 0_to_4 Males   HDB 1- and 2-Ro…     0  2011
 2 Ang Mo Kio Ang Mo Kio Town Centre 0_to_4 Males   HDB 3-Room Flats    10  2011
 3 Ang Mo Kio Ang Mo Kio Town Centre 0_to_4 Males   HDB 4-Room Flats    30  2011
 4 Ang Mo Kio Ang Mo Kio Town Centre 0_to_4 Males   HDB 5-Room and …    50  2011
 5 Ang Mo Kio Ang Mo Kio Town Centre 0_to_4 Males   HUDC Flats (exc…     0  2011
 6 Ang Mo Kio Ang Mo Kio Town Centre 0_to_4 Males   Landed Properti…     0  2011
 7 Ang Mo Kio Ang Mo Kio Town Centre 0_to_4 Males   Condominiums an…    40  2011
 8 Ang Mo Kio Ang Mo Kio Town Centre 0_to_4 Males   Others               0  2011
 9 Ang Mo Kio Ang Mo Kio Town Centre 0_to_4 Females HDB 1- and 2-Ro…     0  2011
10 Ang Mo Kio Ang Mo Kio Town Centre 0_to_4 Females HDB 3-Room Flats    10  2011
# … with 984,646 more rows
…
