Ren Jie’s IS415 Journal - In-Class Exercise 2: Geospatial Data Wrangling
…
Rows: 406566 Columns: 70
── Column specification ────────────────────────────────────────────────────────
Delimiter: ","
chr (43): #source, #report_date, #status_id, #water_source_clean, #water_sou...
dbl (23): row_id, #lat_deg, #lon_deg, #install_year, #fecal_coliform_value, ...
lgl  (4): #rehab_year, #rehabilitator, is_urban, latest_record

ℹ Use `spec()` to retrieve the full column specification for this data.
ℹ Specify the column types or set `show_col_types = FALSE` to quiet this message.

list(wpdx)

[[1]]
# A tibble: 95,008 × 70
   row_id `#source`      #lat_…¹ #lon_…² #repo…³ #stat…⁴ #wate…⁵ #wate…⁶ #wate…⁷
    <dbl> <chr>            <dbl>   <dbl> <chr>   <chr>   <chr>   <chr>   <chr>  
 1 429068 GRID3             7.98    5.12 08/29/… Unknown <NA>    <NA>    Tapsta…
 2 222071 Federal Minis…    6.96    3.60 08/16/… Yes     Boreho… Well    Mechan…
 3 160612 WaterAid          6.49    7.93 12/04/… Yes     Boreho… Well    Hand P…
 4 160669 WaterAid          6.73    7.65 12/04/… Yes     Boreho… Well    <NA>   
 5 160642 WaterAid          6.78    7.66 12/04/… Yes     Boreho… Well    Hand P…
 6 160628 WaterAid          6.96    7.78 12/04/… Yes     Boreho… Well    Hand P…
 7 160632 WaterAid          7.02    7.84 12/04/… Yes     Boreho… Well    Hand P…
 8 642747 Living Water …    7.33    8.98 10/03/… Yes     Boreho… Well    Mechan…
 9 642456 Living Water …    7.17    9.11 10/03/… Yes     Boreho… Well    Hand P…
10 641347 Living Water …    7.20    9.22 03/28/… Yes     Boreho… Well    Hand P…
# … with 94,998 more rows, 61 more variables: `#water_tech_category` <chr>,
#   `#facility_type` <chr>, `#clean_country_name` <chr>, `#clean_adm1` <chr>,
#   `#clean_adm2` <chr>, `#clean_adm3` <chr>, `#clean_adm4` <chr>,
#   `#install_year` <dbl>, `#installer` <chr>, `#rehab_year` <lgl>,
#   `#rehabilitator` <lgl>, `#management_clean` <chr>, `#status_clean` <chr>,
#   `#pay` <chr>, `#fecal_coliform_presence` <chr>,
#   `#fecal_coliform_value` <dbl>, `#subjective_quality` <chr>, …
…
wpdx_sf <- st_as_sf(wpdx,
                    coords = c("#lon_deg", "#lat_deg"),
                    crs = 4326) %>%
  st_transform(crs = 26391)

list(wpdx_sf)

[[1]]
Simple feature collection with 95008 features and 68 fields
Geometry type: POINT
Dimension:     XY
Bounding box:  xmin: 32536.82 ymin: 33461.24 xmax: 1292096 ymax: 1091052
Projected CRS: Minna / Nigeria West Belt
# A tibble: 95,008 × 69
   row_id `#source`      #repo…¹ #stat…² #wate…³ #wate…⁴ #wate…⁵ #wate…⁶ #faci…⁷
 *  <dbl> <chr>          <chr>   <chr>   <chr>   <chr>   <chr>   <chr>   <chr>  
 1 429068 GRID3          08/29/… Unknown <NA>    <NA>    Tapsta… Tapsta… Improv…
 2 222071 Federal Minis… 08/16/… Yes     Boreho… Well    Mechan… Mechan… Improv…
 3 160612 WaterAid       12/04/… Yes     Boreho… Well    Hand P… Hand P… Improv…
 4 160669 WaterAid       12/04/… Yes     Boreho… Well    <NA>    <NA>    Improv…
 5 160642 WaterAid       12/04/… Yes     Boreho… Well    Hand P… Hand P… Improv…
 6 160628 WaterAid       12/04/… Yes     Boreho… Well    Hand P… Hand P… Improv…
 7 160632 WaterAid       12/04/… Yes     Boreho… Well    Hand P… Hand P… Improv…
 8 642747 Living Water … 10/03/… Yes     Boreho… Well    Mechan… Mechan… Improv…
 9 642456 Living Water … 10/03/… Yes     Boreho… Well    Hand P… Hand P… Improv…
10 641347 Living Water … 03/28/… Yes     Boreho… Well    Hand P… Hand P… Improv…
# … with 94,998 more rows, 60 more variables: `#clean_country_name` <chr>,
#   `#clean_adm1` <chr>, `#clean_adm2` <chr>, `#clean_adm3` <chr>,
#   `#clean_adm4` <chr>, `#install_year` <dbl>, `#installer` <chr>,
#   `#rehab_year` <lgl>, `#rehabilitator` <lgl>, `#management_clean` <chr>,
#   `#status_clean` <chr>, `#pay` <chr>, `#fecal_coliform_presence` <chr>,
#   `#fecal_coliform_value` <dbl>, `#subjective_quality` <chr>,
#   `#activity_id` <chr>, `#scheme_id` <chr>, `#wpdx_id` <chr>, …
…
