Ren Jie’s IS415 Journal - In-Class Exercise 7: Spatial Weights and Applications
…
7.1 Computing Local Moran’s I

lisa <- wm_q %>%
  mutate(local_moran = local_moran(
    GDPPC, nb, wt, nsim = 99),
    .before = 1) %>%
  unnest(local_moran)
lisa

Simple feature collection with 88 features and 20 fields
Geometry type: POLYGON
Dimension:     XY
Bounding box:  xmin: 108.7831 ymin: 24.6342 xmax: 114.2544 ymax: 30.12812
Geodetic CRS:  WGS 84
# A tibble: 88 × 21
         ii        eii   var_ii    z_ii    p_ii p_ii_…¹ p_fol…² skewn…³ kurtosis
      <dbl>      <dbl>    <dbl>   <dbl>   <dbl>   <dbl>   <dbl>   <dbl>    <dbl>
 1 -0.00147  0.00177    4.18e-4 -0.158  0.874      0.82    0.41  -0.812  0.652  
 2  0.0259   0.00641    1.05e-2  0.190  0.849      0.96    0.48  -1.09   1.89   
 3 -0.0120  -0.0374     1.02e-1  0.0796 0.937      0.76    0.38   0.824  0.0461 
 4  0.00102 -0.0000349  4.37e-6  0.506  0.613      0.64    0.32   1.04   1.61   
 5  0.0148  -0.00340    1.65e-3  0.449  0.654      0.5     0.25   1.64   3.96   
 6 -0.0388  -0.00339    5.45e-3 -0.480  0.631      0.82    0.41   0.614 -0.264  
 7  3.37    -0.198      1.41e+0  3.00   0.00266    0.08    0.04   1.46   2.74   
 8  1.56    -0.265      8.04e-1  2.04   0.0417     0.08    0.04   0.459 -0.519  
 9  4.42     0.0450     1.79e+0  3.27   0.00108    0.02    0.01   0.746 -0.00582
10 -0.399   -0.0505     8.59e-2 -1.19   0.234      0.28    0.14  -0.685  0.134  
# … with 78 more rows, 12 more variables: mean <fct>, median <fct>,
#   pysal <fct>, nb <nb>, wt <list>, NAME_2 <chr>, ID_3 <int>, NAME_3 <chr>,
#   ENGTYPE_3 <chr>, County <chr>, GDPPC <dbl>, geometry <POLYGON [°]>, and
#   abbreviated variable names ¹​p_ii_sim, ²​p_folded_sim, ³​skewness
…
8 Hot Spot and Cold Spot Area Analysis

HCSA <- wm_q %>%
  mutate(local_Gi = local_gstar_perm(
    GDPPC, nb, wt, nsim = 99),
    .before = 1) %>%
  unnest(local_Gi)
HCSA

Simple feature collection with 88 features and 16 fields
Geometry type: POLYGON
Dimension:     XY
Bounding box:  xmin: 108.7831 ymin: 24.6342 xmax: 114.2544 ymax: 30.12812
Geodetic CRS:  WGS 84
# A tibble: 88 × 17
   gi_star   e_gi     var_gi p_value   p_sim p_fol…¹ skewn…² kurto…³ nb    wt   
     <dbl>  <dbl>      <dbl>   <dbl>   <dbl>   <dbl>   <dbl>   <dbl> <nb>  <lis>
 1  0.0416 0.0114 0.00000641  0.0493 9.61e-1    0.7     0.35   0.875 <int> <dbl>
 2 -0.333  0.0106 0.00000384 -0.0941 9.25e-1    1       0.5    0.661 <int> <dbl>
 3  0.281  0.0126 0.00000751 -0.151  8.80e-1    0.9     0.45   0.640 <int> <dbl>
 4  0.411  0.0118 0.00000922  0.264  7.92e-1    0.6     0.3    0.853 <int> <dbl>
 5  0.387  0.0115 0.00000956  0.339  7.34e-1    0.62    0.31   1.07  <int> <dbl>
 6 -0.368  0.0118 0.00000591 -0.583  5.60e-1    0.72    0.36   0.594 <int> <dbl>
 7  3.56   0.0151 0.00000731  2.61   9.01e-3    0.06    0.03   1.09  <int> <dbl>
 8  2.52   0.0136 0.00000614  1.49   1.35e-1    0.2     0.1    1.12  <int> <dbl>
 9  4.56   0.0144 0.00000584  3.53   4.17e-4    0.04    0.02   1.23  <int> <dbl>
10  1.16   0.0104 0.00000370  1.82   6.86e-2    0.12    0.06   0.416 <int> <dbl>
# … with 78 more rows, 7 more variables: NAME_2 <chr>, ID_3 <int>,
#   NAME_3 <chr>, ENGTYPE_3 <chr>, County <chr>, GDPPC <dbl>,
#   geometry <POLYGON [°]>, and abbreviated variable names ¹​p_folded_sim,
#   ²​skewness, ³​kurtosis
…
ehsa <- emerging_hotspot_analysis(
  x = GDPPC_st,
  .var = "GDPPC",
  k = 1,
  nsim = 99
)

ehsa

# A tibble: 88 × 4
   location     tau    p_value classification     
   <chr>      <dbl>      <dbl> <chr>              
 1 Anxiang    0.221 0.232      sporadic coldspot  
 2 Hanshou    0.147 0.434      sporadic hotspot   
 3 Jinshi     0.441 0.0151     oscilating hotspot 
 4 Li        -0.824 0.00000482 sporadic coldspot  
 5 Linli      0.118 0.537      oscilating hotspot 
 6 Shimen    -0.471 0.00946    oscilating coldspot
 7 Liuyang    0.868 0.00000143 sporadic hotspot   
 8 Ningxiang -0.559 0.00201    sporadic coldspot  
 9 Wangcheng -0.162 0.387      sporadic coldspot  
10 Anren      0.456 0.0120     sporadic coldspot  
# … with 78 more rows
…
