Ren Jie’s IS415 Journal - Take-Home Exercise 02: Spatio-Temporal Analysis of COVID-19 Vaccination Trends in Jarkata
…
3.2.2 Preparing Aspatial Data

Let’s have a look at one of the asptial dataset files and it’s columns:

vac_202106

# A tibble: 268 × 21
   `KODE KELURAHAN` `WILAYAH KOTA`  KECAMATAN   KELURAHAN SASARAN `BELUM VAKSIN`
   <chr>            <chr>           <chr>       <chr>       <dbl>          <dbl>
 1 <NA>             <NA>            <NA>        TOTAL     7739060        5113425
 2 3172051003       JAKARTA UTARA   PADEMANGAN  ANCOL       20393          13394
 3 3173041007       JAKARTA BARAT   TAMBORA     ANGKE       25785          16743
 4 3175041005       JAKARTA TIMUR   KRAMAT JATI BALE KAM…   25158          19068
 5 3175031003       JAKARTA TIMUR   JATINEGARA  BALI MES…    8683           5816
 6 3175101006       JAKARTA TIMUR   CIPAYUNG    BAMBU AP…   22768          15575
 7 3174031002       JAKARTA SELATAN MAMPANG PR… BANGKA      18930          12655
 8 3175051002       JAKARTA TIMUR   PASAR REBO  BARU        20267          11481
 9 3175041004       JAKARTA TIMUR   KRAMAT JATI BATU AMP…   41389          30601
10 3171071002       JAKARTA PUSAT   TANAH ABANG BENDUNGA…   19008          11660
# ℹ 258 more rows
# ℹ 15 more variables: `JUMLAH\r\nDOSIS 1` <dbl>, `JUMLAH\r\nDOSIS 2` <dbl>,
#   `TOTAL VAKSIN\r\nDIBERIKAN` <dbl>, `LANSIA\r\nDOSIS 1` <dbl>,
#   `LANSIA\r\nDOSIS 2` <dbl>, `LANSIA TOTAL \r\nVAKSIN DIBERIKAN` <dbl>,
#   `PELAYAN PUBLIK\r\nDOSIS 1` <dbl>, `PELAYAN PUBLIK\r\nDOSIS 2` <dbl>,
#   `PELAYAN PUBLIK TOTAL\r\nVAKSIN DIBERIKAN` <dbl>,
#   `GOTONG ROYONG\r\nDOSIS 1` <dbl>, `GOTONG ROYONG\r\nDOSIS 2` <dbl>, …
…
unique(vac_202106$`WILAYAH KOTA`)

[1] NA                   "JAKARTA UTARA"      "JAKARTA BARAT"     
[4] "JAKARTA TIMUR"      "JAKARTA SELATAN"    "JAKARTA PUSAT"     
[7] "KAB.ADM.KEP.SERIBU"

Since we do not want the outer islands, we should remove values with City Area KAB.ADM.KEP.SERIBU.

Also, we can see there is an NA value, attributed to the first row which contains the Total count, which we want to remove.

Let’s check how many rows we should expect in our tidied dataframe per month:

vac_202106 %>% filter(vac_202106$`WILAYAH KOTA` != "KAB.ADM.KEP.SERIBU")

# A tibble: 261 × 21
   `KODE KELURAHAN` `WILAYAH KOTA`  KECAMATAN   KELURAHAN SASARAN `BELUM VAKSIN`
   <chr>            <chr>           <chr>       <chr>       <dbl>          <dbl>
 1 3172051003       JAKARTA UTARA   PADEMANGAN  ANCOL       20393          13394
 2 3173041007       JAKARTA BARAT   TAMBORA     ANGKE       25785          16743
 3 3175041005       JAKARTA TIMUR   KRAMAT JATI BALE KAM…   25158          19068
 4 3175031003       JAKARTA TIMUR   JATINEGARA  BALI MES…    8683           5816
 5 3175101006       JAKARTA TIMUR   CIPAYUNG    BAMBU AP…   22768          15575
 6 3174031002       JAKARTA SELATAN MAMPANG PR… BANGKA      18930          12655
 7 3175051002       JAKARTA TIMUR   PASAR REBO  BARU        20267          11481
 8 3175041004       JAKARTA TIMUR   KRAMAT JATI BATU AMP…   41389          30601
 9 3171071002       JAKARTA PUSAT   TANAH ABANG BENDUNGA…   19008          11660
10 3175031002       JAKARTA TIMUR   JATINEGARA  BIDARA C…   32331          23675
# ℹ 251 more rows
# ℹ 15 more variables: `JUMLAH\r\nDOSIS 1` <dbl>, `JUMLAH\r\nDOSIS 2` <dbl>,
#   `TOTAL VAKSIN\r\nDIBERIKAN` <dbl>, `LANSIA\r\nDOSIS 1` <dbl>,
#   `LANSIA\r\nDOSIS 2` <dbl>, `LANSIA TOTAL \r\nVAKSIN DIBERIKAN` <dbl>,
#   `PELAYAN PUBLIK\r\nDOSIS 1` <dbl>, `PELAYAN PUBLIK\r\nDOSIS 2` <dbl>,
#   `PELAYAN PUBLIK TOTAL\r\nVAKSIN DIBERIKAN` <dbl>,
#   `GOTONG ROYONG\r\nDOSIS 1` <dbl>, `GOTONG ROYONG\r\nDOSIS 2` <dbl>, …
…
