Ren Jie’s IS415 Journal - Take-Home Exercise 01: Water Points in Osun, Nigeria
…
remove(geoBoundaries_NGA)

4 Importing and Preparing Aspatial Data

4.1 Importing WPdx+ Aspatial Data

Since WPdx+ data set is in csv format, we will use read_csv() of readr package to import wpdx_nigeria.csv and output it to an R object called wpdx.

wpdx <- read_csv("Take-Home_Ex01/data/aspatial/wpdx_nga.csv")

list(wpdx)

[[1]]
# A tibble: 97,478 × 74
   row_id `#source`            `#lat_deg` `#lon_deg` `#report_date` `#status_id`
    <dbl> <chr>                     <dbl>      <dbl> <chr>          <chr>       
 1 158721 Federal Ministry of…       5.07       6.62 02/19/2015 12… Yes         
 2 158892 Federal Ministry of…       5.09       7.09 02/06/2015 12… Yes         
 3 323117 Federal Ministry of…       5.91       8.77 08/31/2015 12… Yes         
 4 300176 Federal Ministry of…       5.23       7.32 05/17/2015 12… Yes         
 5 324346 Federal Ministry of…       6.88       3.36 08/17/2015 12… Yes         
 6 297273 Federal Ministry of…       6.59       3.29 05/26/2015 12… Yes         
 7 296853 Federal Ministry of…       6.60       3.26 06/02/2015 12… Yes         
 8 323866 Federal Ministry of…       6.20       6.73 09/18/2015 12… Yes         
 9 297044 Federal Ministry of…       6.61       3.30 05/26/2015 12… Yes         
10 324321 Federal Ministry of…       6.96       3.60 08/16/2015 12… Yes         
# ℹ 97,468 more rows
# ℹ 68 more variables: `#water_source_clean` <chr>,
#   `#water_source_category` <chr>, `#water_tech_clean` <chr>,
#   `#water_tech_category` <chr>, `#facility_type` <chr>,
#   `#clean_country_name` <chr>, `#clean_adm1` <chr>, `#clean_adm2` <chr>,
#   `#clean_adm3` <lgl>, `#clean_adm4` <lgl>, `#install_year` <dbl>,
#   `#installer` <lgl>, `#rehab_year` <lgl>, `#rehabilitator` <lgl>, …
…
wpdx <- st_sf(wpdx, crs=4326)

Next, we then convert the projection to the appropriate decimal based projection system. As discussed earlier, we utilise the EPSG:26391 Projected Coordinate System as Osun falls under Minna, Nigeria West Belt.

wpdx <- wpdx %>%
  st_transform(crs = 26391)

wpdx

Simple feature collection with 97478 features and 74 fields
Geometry type: POINT
Dimension:     XY
Bounding box:  xmin: 32536.82 ymin: 33461.24 xmax: 1292096 ymax: 1091052
Projected CRS: Minna / Nigeria West Belt
# A tibble: 97,478 × 75
   row_id `#source`            `#lat_deg` `#lon_deg` `#report_date` `#status_id`
 *  <dbl> <chr>                     <dbl>      <dbl> <chr>          <chr>       
 1 158721 Federal Ministry of…       5.07       6.62 02/19/2015 12… Yes         
 2 158892 Federal Ministry of…       5.09       7.09 02/06/2015 12… Yes         
 3 323117 Federal Ministry of…       5.91       8.77 08/31/2015 12… Yes         
 4 300176 Federal Ministry of…       5.23       7.32 05/17/2015 12… Yes         
 5 324346 Federal Ministry of…       6.88       3.36 08/17/2015 12… Yes         
 6 297273 Federal Ministry of…       6.59       3.29 05/26/2015 12… Yes         
 7 296853 Federal Ministry of…       6.60       3.26 06/02/2015 12… Yes         
 8 323866 Federal Ministry of…       6.20       6.73 09/18/2015 12… Yes         
 9 297044 Federal Ministry of…       6.61       3.30 05/26/2015 12… Yes         
10 324321 Federal Ministry of…       6.96       3.60 08/16/2015 12… Yes         
# ℹ 97,468 more rows
# ℹ 69 more variables: `#water_source_clean` <chr>,
#   `#water_source_category` <chr>, `#water_tech_clean` <chr>,
#   `#water_tech_category` <chr>, `#facility_type` <chr>,
#   `#clean_country_name` <chr>, `#clean_adm1` <chr>, `#clean_adm2` <chr>,
#   `#clean_adm3` <lgl>, `#clean_adm4` <lgl>, `#install_year` <dbl>,
#   `#installer` <lgl>, `#rehab_year` <lgl>, `#rehabilitator` <lgl>, …
…
